Interaktive Abbildungen
…
Direktes Erstellen eines plotly-Objekts via plot_ly(), plot_geo() oder plot_mapbox().

Benötigte Pakete

library(tidyverse)
library(readr) #Daten einlesen
library(plotly) 

Daten laden

(Landkreise_merged <- read_csv("daten_beispiele/Landkreise_merged.csv")
)

## # A tibble: 9,223 x 9
##    Kennziffer Raumeinheit Aggregat  Jahr Arbeitslosenquo~ Wahlbeteiligung
##    <chr>      <chr>       <chr>    <dbl>            <dbl>           <dbl>
##  1 01001      Flensburg,~ krsfr. ~  1998             14.6            75.8
##  2 01001      Flensburg,~ krsfr. ~  1999             13              NA  
##  3 01001      Flensburg,~ krsfr. ~  2000             11.8            NA  
##  4 01001      Flensburg,~ krsfr. ~  2001             12.1            NA  
##  5 01001      Flensburg,~ krsfr. ~  2002             12.1            73.9
##  6 01001      Flensburg,~ krsfr. ~  2003             13.7            NA  
##  7 01001      Flensburg,~ krsfr. ~  2004             14              NA  
##  8 01001      Flensburg,~ krsfr. ~  2005             18.3            72  
##  9 01001      Flensburg,~ krsfr. ~  2006             15.4            NA  
## 10 01001      Flensburg,~ krsfr. ~  2007             12.5            NA  
## # ... with 9,213 more rows, and 3 more variables: Durchschnittsalter <dbl>,
## #   BIP <dbl>, Stadt_Land <dbl>
…
