Geodaten und Karten in R
…
Der Krankenhäuser-Datensatz bietet Informationen zu den verschiedenen Typen der Krankenhäuser in der Variable coll_name. Wie sind die verschiedenen Krankenhaustypen geografisch verteilt?

Zunächst untersuchen wir, wie viele Krankenhaustypen es gibt und wie viele Krankenhäuser dem jeweiligen Typ angehören.

krankenhaeuser_wgs84 %>%
  as_tibble() %>% #von sf-Objekt in tibble umwandeln
  count(coll_name) %>%
  arrange(desc(n))

## # A tibble: 23 x 2
##    coll_name                   n
##    <chr>                   <int>
##  1 Krankenhäuser Allgemein   231
##  2 Fachklinik                 38
##  3 Psychiatrie                33
##  4 Innere Medizin             32
##  5 Orthopädie                 25
##  6 Kardiologie                22
##  7 Geriatrie                  18
##  8 Gynäkologie                17
##  9 Chirurgie                  16
## 10 Neurologie                 13
## # ... with 13 more rows
…
