Mikrodatenanalyse in R
…
Bei der Arbeit mit Mikrodatensätzen liegt die erste Hürde im Zusammentragen der Datensätze. Beispielhaft soll dies anhand dreier Datensätze demonstriert werden. Die Datensätze basieren auf dem frei zugänglichen SOEP-Übungsdatensatz. Dieser wurde um weitere Variablen ergänzt und für einen realistischeren Anwendungsfall aufgesplittet. Die Variablen sind verfremdet, beziehungsweise auf Zufallsbasis erstellt.

Für unsere Mikrodatenanalyse nutzen wir drei Datensätze: ppathl.dta, pl.sav, phealth.dta. Wir lesen diese mit den Befehlen read_dta() beziehungsweise read_sav() aus dem Paket haven ein.

ppathl <- read_dta("Beispielordner_Mikrodatenanalyse/data_in/ppathl.dta")
pl <- read_sav("Beispielordner_Mikrodatenanalyse/data_in/pl.sav")
phealth <- read_dta("Beispielordner_Mikrodatenanalyse/data_in/phealth.dta")

Wie immer sollten die Datensätze zunächst inspiziert werden:

ppathl

## # A tibble: 12,922 x 4
##    persnr  jahr          sex weight
##     <dbl> <dbl>    <dbl+lbl>  <dbl>
##  1 500575  2001 1 [weiblich]   467.
##  2 279067  2003 1 [weiblich]   860.
##  3 238927  2004 0 [maenlich]   343.
##  4 240595  2004 0 [maenlich]   869.
##  5  88977  2003 1 [weiblich]   367.
##  6 254006  2001 0 [maenlich]   314.
##  7 344281  2003 1 [weiblich]   892.
##  8 666151  2002 0 [maenlich]   908.
##  9 383792  2001 0 [maenlich]   793.
## 10 482355  2002 1 [weiblich]   648.
## # ... with 12,912 more rows

pl

## # A tibble: 12,922 x 7
##    persnr  jahr bildung anz_kind income  bula region
##     <dbl> <dbl>   <dbl>    <dbl>  <dbl> <dbl> <chr> 
##  1 294354  2001    10.5        0  2456.    11 Land  
##  2 414129  2001    12          0  8143.     4 Stadt 
##  3 417490  2002    10.5        2  1051.     2 Land  
##  4 334726  2000     9          0  1276.    14 Stadt 
##  5 569347  2001    11          2  7047.    15 Stadt 
##  6 471291  2003    18          0  3711.    11 Land  
##  7 663550  2004    11          0  1815.    15 Stadt 
##  8 587268  2001    NA          0  3283.     6 Stadt 
##  9  75033  2000    13          1  1927.    13 Stadt 
## 10 180832  2003    12          0  1081.    13 Land  
## # ... with 12,912 more rows

phealth

## # A tibble: 12,276 x 6
##    persnr  jahr      gesund_org gesund_std               lebensz_org lebensz_std
##     <dbl> <dbl>       <dbl+lbl>      <dbl>                 <dbl+lbl>       <dbl>
##  1 235585  2000 4 [Gut]              0.567  5 [5 Zufrieden: Skala 0~     -1.23  
##  2  74141  2000 3 [Zufriedenst~     -0.464  6 [6 Zufrieden: Skala 0~     -0.659 
##  3 512655  2001 4 [Gut]              0.567  6 [6 Zufrieden: Skala 0~     -0.659 
##  4 259440  2003 3 [Zufriedenst~     -0.464  8 [8 Zufrieden: Skala 0~      0.477 
##  5 527534  2002 4 [Gut]              0.567  9 [9 Zufrieden: Skala 0~      1.05  
##  6 510444  2001 1 [Schlecht]        -2.53   5 [5 Zufrieden: Skala 0~     -1.23  
##  7 396886  2001 2 [Weniger_gut]     -1.49   6 [6 Zufrieden: Skala 0~     -0.659 
##  8 246747  2002 5 [Sehr_gut]         1.60  10 [10 Zufrieden: Skala ~      1.61  
##  9 544752  2001 4 [Gut]              0.567  6 [6 Zufrieden: Skala 0~     -0.659 
## 10 152915  2000 5 [Sehr_gut]         1.60   7 [7 Zufrieden: Skala 0~     -0.0909
## # ... with 12,266 more rows
…
