Das Tidyverse
…
x %>% f %>% g %>% h äquivalent zu h(g(f(x)))

Vor allem in der explorativen Datenanalyse und beim Erstellen von Visualisierungen ist die Pipe sehr gut geeignet. Bei sehr komplizierten Datenstrukturen, oder sehr vielen Operationen sollte man allerdings auf andere Tools zurückgreifen.

filter()

Die filter() ermöglicht, wie der Name impliziert, das filtern von Datensätzen nach festgelegten Kriterien.

# Filtern nach Aggregat und Arbeitslosenquote
Arbeitslosenquote %>% 
  filter(Aggregat == "Landkreis",
         Arbeitslosenquote > 10)

## # A tibble: 1,148 x 5
##    Kennziffer Raumeinheit         Aggregat  Jahr  Arbeitslosenquote
##    <chr>      <chr>               <chr>     <chr>             <dbl>
##  1 01051      Dithmarschen        Landkreis 1998               10.7
##  2 01051      Dithmarschen        Landkreis 2003               10.5
##  3 01051      Dithmarschen        Landkreis 2004               11.1
##  4 01051      Dithmarschen        Landkreis 2005               13.7
##  5 01051      Dithmarschen        Landkreis 2006               11.8
##  6 01054      Nordfriesland       Landkreis 2005               10.1
##  7 01055      Ostholstein         Landkreis 1998               10.2
##  8 01055      Ostholstein         Landkreis 2005               11.3
##  9 01056      Pinneberg           Landkreis 2005               10.1
## 10 01059      Schleswig-Flensburg Landkreis 2005               10.2
## # ... with 1,138 more rows

select()

Mit der Funktion select() wählt man alle relevanten Spalten bzw. Variablen aus einem Datensatz aus.

Arbeitslosenquote %>% 
  select(Raumeinheit, Jahr, Arbeitslosenquote)

## # A tibble: 8,020 x 3
##    Raumeinheit      Jahr  Arbeitslosenquote
##    <chr>            <chr>             <dbl>
##  1 Flensburg, Stadt 1998               14.6
##  2 Flensburg, Stadt 1999               13  
##  3 Flensburg, Stadt 2000               11.8
##  4 Flensburg, Stadt 2001               12.1
##  5 Flensburg, Stadt 2002               12.1
##  6 Flensburg, Stadt 2003               13.7
##  7 Flensburg, Stadt 2004               14  
##  8 Flensburg, Stadt 2005               18.3
##  9 Flensburg, Stadt 2006               15.4
## 10 Flensburg, Stadt 2007               12.5
## # ... with 8,010 more rows

mutate()

Die Funktion mutate() erlaubt es, Spalten bzw. Variablen in einem Datensatz zu verändern oder neue Spalten zu erzeugen.

Arbeitslosenquote %>% 
  select(Raumeinheit, Jahr, Arbeitslosenquote) %>% 
  filter(Jahr == "2007") %>% 
  mutate(Abweichung = Arbeitslosenquote - mean(Arbeitslosenquote))

## # A tibble: 401 x 4
##    Raumeinheit         Jahr  Arbeitslosenquote Abweichung
##    <chr>               <chr>             <dbl>      <dbl>
##  1 Flensburg, Stadt    2007               12.5      3.86 
##  2 Kiel, Stadt         2007               12.6      3.96 
##  3 Lübeck, Stadt       2007               13.1      4.46 
##  4 Neumünster, Stadt   2007               11.6      2.96 
##  5 Dithmarschen        2007               10        1.36 
##  6 Herzogtum Lauenburg 2007                7.2     -1.44 
##  7 Nordfriesland       2007                8.5     -0.141
##  8 Ostholstein         2007                8.8      0.159
##  9 Pinneberg           2007                6.8     -1.84 
## 10 Plön                2007                7.6     -1.04 
## # ... with 391 more rows

group_by()

group_by() gruppiert bestimmte Variablen in gewünschte Gruppen für nachfolgende Operationen. Viele Funktionen bauen auf group_by auf.

Arbeitslosenquote %>% 
  select(-Kennziffer) %>% 
  filter(Jahr == "1998") %>% 
  group_by(Aggregat) %>% 
  mutate(Quote_Aggr = mean(Arbeitslosenquote))

## # A tibble: 401 x 5
## # Groups:   Aggregat [2]
##    Raumeinheit         Aggregat     Jahr  Arbeitslosenquote Quote_Aggr
##    <chr>               <chr>        <chr>             <dbl>      <dbl>
##  1 Flensburg, Stadt    krsfr. Stadt 1998               14.6       12.4
##  2 Kiel, Stadt         krsfr. Stadt 1998               13.9       12.4
##  3 Lübeck, Stadt       krsfr. Stadt 1998               13.4       12.4
##  4 Neumünster, Stadt   krsfr. Stadt 1998               13.4       12.4
##  5 Dithmarschen        Landkreis    1998               10.7       10.1
##  6 Herzogtum Lauenburg Landkreis    1998                8.3       10.1
##  7 Nordfriesland       Landkreis    1998                9.2       10.1
##  8 Ostholstein         Landkreis    1998               10.2       10.1
##  9 Pinneberg           Landkreis    1998                8.4       10.1
## 10 Plön                Landkreis    1998                8.9       10.1
## # ... with 391 more rows
…
arrange()

Die Funktion arrange() sortiert die Daten in einer gewünschten Reihenfolge.

Arbeitslosenquote %>% 
  select(-Kennziffer) %>% 
  filter(Jahr == max(Jahr)) %>% 
  arrange(Arbeitslosenquote)

## # A tibble: 401 x 4
##    Raumeinheit          Aggregat  Jahr  Arbeitslosenquote
##    <chr>                <chr>     <chr>             <dbl>
##  1 Eichstätt            Landkreis 2017                1.5
##  2 Erding               Landkreis 2017                1.8
##  3 Pfaffenhofen a.d.Ilm Landkreis 2017                1.8
##  4 Neumarkt i.d.OPf.    Landkreis 2017                1.9
##  5 Regensburg           Landkreis 2017                1.9
##  6 Unterallgäu          Landkreis 2017                1.9
##  7 Donau-Ries           Landkreis 2017                1.9
##  8 Ebersberg            Landkreis 2017                2  
##  9 Erlangen-Höchstadt   Landkreis 2017                2  
## 10 Main-Spessart        Landkreis 2017                2  
## # ... with 391 more rows
…
